# --> Including file '/nightlies/jenkins-tests/workspace/nightly-builds/tests@3/build/ALIGNMENT/ALIGNMENT_master/Alignment/Escher/tests/options/testEscher-defaults.py'
# <-- End of file '/nightlies/jenkins-tests/workspace/nightly-builds/tests@3/build/ALIGNMENT/ALIGNMENT_master/Alignment/Escher/tests/options/testEscher-defaults.py'
# skipping configuration of RawEventFormatConf
# applying configuration of Escher
# Initializing sequences!
# Defining options!
# Setting up alignment sequence
# --> Including file '/cvmfs/lhcb.cern.ch/lib/lhcb/LHCB/LHCB_v42r1/GaudiConf/options/RootHist.opts'
# ApplicationMgr.HistogramPersistency = "ROOT";
# <-- End of file '/cvmfs/lhcb.cern.ch/lib/lhcb/LHCB/LHCB_v42r1/GaudiConf/options/RootHist.opts'
# /***** User Escher/Escher **************************************************************************
# |-Persistency         = None
# |-Upgrade             = False
# |-SkipEvents          = 0
# |-DatasetName         = ''
# |-PackType            = 'TES'
# |-Kalman              = True
# |-DDDBtag             = ''
# |-Millepede           = False
# |-MainSequence        = ['ProcessPhase/Init', GaudiSequencer('HltFilterSeq'), 'ProcessPhase/Reco', 'ProcessPhase/Moni', GaudiSequencer('AlignSequence')]
# |                     (default: [])
# |-OutputType          = 'NONE'
# |-Incident            = ''
# |-MoniSequence        = ['VELO', 'Tr', 'OT', 'ST']  (default: ['VELO', 'Tr', 'OT', 'ST'])
# |-UseOracle           = False
# |-AlignSequence       = []  (default: [])
# |-OnlineMode          = False
# |-ExpertTracking      = ['simplifiedGeometry']  (default: ['simplifiedGeometry'])
# |-DBSnapshotDirectory = '/group/online/hlt/conditions'
# |-PrintFreq           = 100
# |-OutputLevel         = 3
# |-EvtMax              = 10  (default: -1)
# |-Simulation          = False
# |-HltFilterCode       = None
# |-Context             = 'Offline'
# |-RecoSequence        = []  (default: [])
# |-CondDBtag           = ''
# |-PartitionName       = 'LHCb'
# |-UseDBSnapshot       = False
# |-GlobalCuts          = {}  (default: {})
# |-InitSequence        = ['Escher']  (default: ['Escher'])
# |-DataType            = '2011'
# |-WithMC              = False
# |-InputType           = 'DST'
# |-NoWarnings          = False
# |-WriteFSR            = True
# |-STPerfStudy         = False
# |-SpecialData         = []  (default: [])
# |-UseFileStager       = False
# |-OnlineAligWorkDir   = '/group/online/AligWork/running'
# \----- (End of User Escher/Escher) -----------------------------------------------------------------
# /***** User LHCbApp/LHCbApp ************************************************************************
# |-Persistency    = None
# |-OutputLevel    = 3
# |-DataType       = '2011'
# |-TimeStamp      = False
# |-SkipEvents     = 0
# |-EvtMax         = 10  (default: -1)
# |-CondDBtag      = ''
# |-DQFLAGStag     = ''
# |-IgnoreDQFlags  = True
# |-Monitors       = []  (default: [])
# |-Detectors      = []  (default: [])
# |-LocalDataTypes = []  (default: [])
# |-XMLSummary     = None
# |-Simulation     = False
# |-DDDBtag        = ''
# |-OnlineMode     = False
# \----- (End of User LHCbApp/LHCbApp) ---------------------------------------------------------------
# /***** User RecSysConf/RecSysConf ******************************************************************
# |-SkipTracking  = False
# |-DataType      = '2011'
# |-OutputLevel   = 3
# |-Histograms    = 'OfflineFull'
# |-Detectors     = ['Velo', 'TT', 'IT', 'OT', 'Rich', 'Tr', 'Calo', 'Muon', 'L0']
# |               (default: ['Velo', 'TT', 'IT', 'OT', 'Rich', 'Tr', 'Calo', 'Muon', 'L0'])
# |-OutputType    = 'NONE'
# |-Simulation    = False
# |-Context       = 'Offline'
# |-RichSequences = ['RICH']  (default: ['RICH'])
# |-RecoSequence  = ['Decoding', 'VELO', 'TT', 'IT', 'OT', 'Tr', 'Vertex']  (default: None)
# |-SpecialData   = []  (default: [])
# |-OnlineMode    = False
# \----- (End of User RecSysConf/RecSysConf) ---------------------------------------------------------
# /***** User TrackSys/TrackSys **********************************************************************
# |-FilterBeforeFit          = True
# |-TrackingSequence         = []  (default: [])
# |-ExpertTracking           = ['simplifiedGeometry']  (default: [])
# |-ExpertHistos             = False
# |-TrackExtraInfoAlgorithms = []  (default: [])
# |-DataType                 = '2011'
# |-WithMC                   = False
# |-TrackTypes               = []  (default: [])
# |-OutputType               = 'NONE'
# |-Simulation               = False
# |-OldCloneKiller           = False
# |-ForceNewSeq              = False
# |-GlobalCuts               = {}  (default: {})
# |-ExcludedLayers           = []  (default: [])
# |-ForceOldSeq              = False
# |-SpecialData              = []  (default: [])
# |-HltMode                  = False
# |-TrackPatRecAlgorithms    = []  (default: [])
# \----- (End of User TrackSys/TrackSys) -------------------------------------------------------------
# /***** User RecMoniConf/RecMoniConf ****************************************************************
# |-SkipTracking  = False
# |-DataType      = '2011'
# |-Detectors     = ['Velo', 'TT', 'IT', 'OT', 'Rich', 'Tr', 'Calo', 'Muon', 'L0']
# |               (default: ['Velo', 'TT', 'IT', 'OT', 'Rich', 'Tr', 'Calo', 'Muon', 'L0'])
# |-Histograms    = 'OfflineFull'
# |-OutputLevel   = 3
# |-Simulation    = False
# |-Context       = 'Offline'
# |-MoniSequence  = ['VELO', 'Tr', 'OT', 'ST']  (default: None)
# |-RichSequences = ['RICH']  (default: ['RICH'])
# |-OnlineMode    = False
# |-CheckEnabled  = False
# \----- (End of User RecMoniConf/RecMoniConf) -------------------------------------------------------
# /***** User TAlignment/TAlignment ******************************************************************
# |-DatasetName                  = ''
# |-Upgrade                      = False  (default: False)
# |-OutputDataFile               = ''
# |-EcalTopLevelElement          = '/dd/Structure/LHCb/DownstreamRegion/Ecal'
# |-ParticleLocation             = ''
# |-PVSelection                  = None
# |-LogFile                      = 'alignlog.txt'
# |-DataCondType                 = 'Run2'
# |-ParticleSelections           = []  (default: [])
# |-TrackSelections              = [<TAlignment.TrackSelections.GoodLongTracks instance at 0x7fa59cbc8050>]
# |                              (default: [<TAlignment.TrackSelections.GoodLongTracks instance at 0x7fa59cbc8050>])
# |-SolvTool                     = 'DiagSolvTool'
# |-MinNumberOfHits              = 10
# |-RunList                      = []  (default: [])
# |-Precision                    = 10
# |-MuonTopLevelElement          = '/dd/Structure/LHCb/DownstreamRegion/Muon'
# |-Incident                     = ''
# |-ITTopLevelElement            = '/dd/Structure/LHCb/AfterMagnetRegion/T/IT'
# |-OTTopLevelElement            = '/dd/Structure/LHCb/AfterMagnetRegion/T/OT'
# |-OnlineMode                   = False
# |-EigenValueThreshold          = -1
# |-WriteCondSubDetList          = []  (default: [])
# |-UpdateInFinalize             = True
# |-OutputLevel                  = 3
# |-UseLocalFrame                = True
# |-CondFilePrefix               = 'xml/'
# |-DimuonLocation               = ''
# |-VertexLocation               = ''
# |-Chi2Outlier                  = 10000
# |-VeloTopLevelElement          = '/dd/Structure/LHCb/BeforeMagnetRegion/Velo'
# |-Constraints                  = []  (default: [])
# |-NumIterations                = 1
# |-UseWeightedAverageConstraint = False
# |-TTTopLevelElement            = '/dd/Structure/LHCb/BeforeMagnetRegion/TT'
# |-TrackLocation                = ''
# |-ElementsToAlign              = []  (default: [])
# |-UseCorrelations              = True
# |-Sequencer                    = GaudiSequencer('AlignSequence')
# |                              (default: GaudiSequencer('TAlignmentSequencer'))
# |-VPTopLevelElement            = '/dd/Structure/LHCb/BeforeMagnetRegion/VP'
# |-UsePreconditioning           = True
# |-OnlineAligWorkDir            = '/group/online/AligWork/running'
# \----- (End of User TAlignment/TAlignment) ---------------------------------------------------------
# /***** User DstConf/DstConf ************************************************************************
# |-OutputName          = ''
# |-Turbo               = False
# |-SimType             = 'None'
# |-AlwaysCreate        = False
# |-EnablePackingChecks = False
# |-DstType             = 'NONE'
# |-DataType            = ''
# |-Writer              = 'DstWriter'
# |-Detectors           = ['Velo', 'TT', 'IT', 'OT', 'Rich', 'Tr', 'Calo', 'Muon']
# |                     (default: ['Velo', 'TT', 'IT', 'OT', 'Rich', 'Tr', 'Calo', 'Muon'])
# |-WriteFSR            = True
# |-SpilloverPaths      = ['Prev', 'PrevPrev', 'Next', 'NextNext']
# |                     (default: ['Prev', 'PrevPrev', 'Next', 'NextNext'])
# |-SplitRawEventOutput = 2.0
# |-PackSequencer       = None
# |-PVPersistence       = 'RecVertex'
# |-EnableUnpack        = []  (default: [])
# |-PackType            = 'TES'
# \----- (End of User DstConf/DstConf) ---------------------------------------------------------------
******* calling  TAlignment
****** setting up Kalman type alignment!
**** setting the main kalman aligment sequence!
================ Configuring XML writer for offline alignment =====================
=================== OnlineMode =  False
# No Writer defined for DIGI
# WARNING: Using default tag dddb-20150522-1 for partition DDDB
# WARNING: Using default tag cond-20150409 for partition LHCBCOND
# WARNING: Using default tag <latest:2011> for partition DQFLAGS
ApplicationMgr    SUCCESS
====================================================================================================================================
                                                   Welcome to Alignment version master
                                          running on lbbuild76.cern.ch on Mon Feb 20 04:36:06 2017
====================================================================================================================================
ApplicationMgr       INFO Application Manager Configured successfully
DetectorPersist...   INFO Added successfully Conversion service:XmlCnvSvc
DetectorDataSvc   SUCCESS Detector description database: conddb:/lhcb.xml
RndmGenSvc.Engine    INFO Generator engine type:CLHEP::RanluxEngine
RndmGenSvc.Engine    INFO Current Seed:1234567 Luxury:3
RndmGenSvc           INFO Using Random engine:HepRndm::Engine<CLHEP::RanluxEngine>
TimingAuditor.T...   INFO This machine has a speed about   2.78 times the speed of a 2.8 GHz Xeon.
TransportSvc         INFO Initialize the static pointer to DetDesc::IGeometryErrorSvc
TransportSvc         INFO Recovery of geometry errors is  ENABLED
COOLConfSvc          INFO CORAL Connection Retrial Period set to 60s
COOLConfSvc          INFO CORAL Connection Retrial Time-Out set to 900s
DDDB                 INFO Connected to database "sqlite_file:/afs/cern.ch/lhcb/software/DEV/nightlies/DBASE/Det/SQLDDDB/v7r999/db/DDDB.db/DDDB"
DDDB                 INFO Using TAG "dddb-20150522-1"
EscherSequencer      INFO Member list: ProcessPhase/Init, GaudiSequencer/HltFilterSeq, ProcessPhase/Reco, ProcessPhase/Moni, GaudiSequencer/AlignSequence
Init                 INFO Member list: GaudiSequencer/InitEscherSeq, with context 'Offline'
InitEscherSeq        INFO Member list: RecInit/EscherInit, with context 'Offline'
EscherInit        SUCCESS ==================================================================
EscherInit        SUCCESS Requested to process 10 events
EscherInit        SUCCESS ==================================================================
RootHistSvc          INFO Writing ROOT histograms to: -10ev-histos.root
HistogramPersis...   INFO Added successfully Conversion service:RootHistSvc
HltFilterSeq         INFO Member list: HltDecReportsDecoder/Hlt1DecReportsDecoder, HltDecReportsDecoder/Hlt2DecReportsDecoder
Reco                 INFO Member list: GaudiSequencer/RecoDecodingSeq, GaudiSequencer/RecoVELOSeq, GaudiSequencer/RecoTTSeq, GaudiSequencer/RecoITSeq, GaudiSequencer/RecoOTSeq, GaudiSequencer/RecoTrSeq, GaudiSequencer/RecoVertexSeq
RecoDecodingSeq      INFO Member list: DecodeVeloRawBuffer/createBothVeloClusters, RawBankToSTClusterAlg/createTTClusters, RawBankToSTLiteClusterAlg/createTTLiteClusters, RawBankToSTLiteClusterAlg/createITLiteClusters, RawBankToSTClusterAlg/createITClusters
createBothVeloC...   INFO Cancel processing of events with more than 6000 Velo clusters
LHCBCOND             INFO Connected to database "sqlite_file:/afs/cern.ch/lhcb/software/DEV/nightlies/DBASE/Det/SQLDDDB/v7r999/db/LHCBCOND.db/LHCBCOND"
LHCBCOND             INFO Using TAG "cond-20150409"
ONLINE_2011          INFO Connected to database "sqlite_file:/afs/cern.ch/lhcb/software/DEV/nightlies/DBASE/Det/SQLDDDB/v7r999/db/ONLINE-2011.db/ONLINE"
ONLINE_2011          INFO Using TAG ""
RecoVELOSeq          INFO Member list: FastVeloTracking
RecoTTSeq            INFO Member list:
RecoITSeq            INFO Member list:
RecoOTSeq            INFO Member list:
RecoTrSeq            INFO Member list: ProcessPhase/Track
Track                INFO Member list: GaudiSequencer/TrackForwardPatSeq, GaudiSequencer/TrackSeedPatSeq, GaudiSequencer/TrackMatchPatSeq, GaudiSequencer/TrackDownstreamPatSeq, GaudiSequencer/TrackVeloTTPatSeq, GaudiSequencer/TrackFitSeq, GaudiSequencer/TrackAddExtraInfoSeq, GaudiSequencer/TrackEraseExtraInformationSeq
TrackForwardPatSeq   INFO Member list: PatForward
ToolSvc.OTRawBa...   INFO  countsPerBX = 64 numberOfBX  = 3 timePerBX = 25 ForceBankVersion = 255 require window [-8,56], vetoing out of time hit pairs
MagneticFieldSvc     INFO Opened magnetic field file : /afs/cern.ch/lhcb/software/DEV/nightlies/DBASE/FieldMap/v5r7/cdf/field101.c1.up.cdf
MagneticFieldSvc     INFO Opened magnetic field file : /afs/cern.ch/lhcb/software/DEV/nightlies/DBASE/FieldMap/v5r7/cdf/field101.c2.up.cdf
MagneticFieldSvc     INFO Opened magnetic field file : /afs/cern.ch/lhcb/software/DEV/nightlies/DBASE/FieldMap/v5r7/cdf/field101.c3.up.cdf
MagneticFieldSvc     INFO Opened magnetic field file : /afs/cern.ch/lhcb/software/DEV/nightlies/DBASE/FieldMap/v5r7/cdf/field101.c4.up.cdf
MagneticFieldSvc     INFO Map scaled by factor 1 with polarity internally used: 1 signed relative current: 1
TrackSeedPatSeq      INFO Member list: PatSeeding
TrackMatchPatSeq     INFO Member list: PatMatch
TrackDownstream...   INFO Member list: PatDownstream
PatDownstream        INFO ========================================
PatDownstream        INFO  deltaP             = 2
PatDownstream        INFO  xPredTol           = 150000
PatDownstream        INFO  TolMomentum        = 20000
PatDownstream        INFO  TolMatch           = 1.5
PatDownstream        INFO  TolUV              = 2
PatDownstream        INFO  MaxDistance        = 0.3
PatDownstream        INFO  MaxChi2            = 20
PatDownstream        INFO  MaxWindowSize      = 10
PatDownstream        INFO  RemoveUsed         = 0
PatDownstream        INFO  RemoveAll          = 0
PatDownstream        INFO  LongChi2           = 1.5
PatDownstream        INFO ========================================
PatDownstream        INFO zMagnetParams 5372.13 -3702.66 401.378 109033 -0.0119398 -0.158909 1668.42
PatDownstream        INFO momentumParams 1148.65 961.786 5326.81
TrackVeloTTPatSeq    INFO Member list: PatVeloTT
ToolSvc.PatTTMa...   INFO Start generation of VeloTT Bdl LUTs
ToolSvc.PatTTMa...   INFO Generation of VeloTT Bdl LUTs finished
ToolSvc.PatTTMa...   INFO Start generation of VeloTT deflection LUTs
ToolSvc.PatTTMa...   INFO Generation of VeloTT deflection LUTs finished
ToolSvc.VeloClu...   INFO  --> Tool configured using the Cond DB
ToolSvc.TTClust...   INFO APE set to 0.197
ToolSvc.TTClust...   INFO Error Vec 0.257 0.245 0.277 0.208
ToolSvc.ITClust...   INFO APE set to 0.0758
ToolSvc.ITClust...   INFO Error Vec 0.253 0.236 0.273 0.185
PatVeloTT            INFO  InputTracksName    = Rec/Track/Velo
PatVeloTT            INFO  OutputTracksName   = Rec/Track/VeloTT
TrackFitSeq          INFO Member list: TrackBestTrackCreator
TrackAddExtraIn...   INFO Member list: GaudiSequencer/TrackClonesSeq, TrackAddLikelihood, TrackAddNNGhostId
TrackClonesSeq       INFO Member list: TrackBuildCloneTable/FindTrackClones, TrackCloneCleaner/FlagTrackClones
ToolSvc.TrackHe...   INFO ExtrapolatorID=5
FindTrackClones      INFO Will build clone table for z=[0, 990, 9450]mm at 'Rec/Track/BestClones'
FindTrackClones      INFO Max Kullbeck Liebler Distance = 5000
TrackEraseExtra...   INFO Member list: TrackEraseExtraInfo
RecoVertexSeq        INFO Member list: PatPVOffline, TrackV0Finder
Moni                 INFO Member list: GaudiSequencer/MoniVELOSeq, GaudiSequencer/MoniTrSeq, GaudiSequencer/MoniOTSeq, GaudiSequencer/MoniSTSeq
MoniVELOSeq          INFO Member list: Velo::VeloClusterMonitor/VeloClusterMonitor, Velo::VeloTrackMonitor/VeloTrackMonitor, Velo::VeloIPResolutionMonitor/VeloIPResolutionMonitor
MoniTrSeq            INFO Member list: TrackMonitor, TrackDiMuonMonitor, TrackVertexMonitor, AlignmentOnlineMonitor, TrackV0Monitor, TrackFitMatchMonitor, TrackAlignMonitor, TrackITOverlapMonitor, TrackVeloOverlapMonitor, TTTrackMonitor, ITTrackMonitor, TrackPV2HalfAlignMonitor
MoniOTSeq            INFO Member list: OTTimeMonitor, OTTrackMonitor, OTHitEfficiencyMonitor
MoniSTSeq            INFO Member list: ST::STClusterMonitor/TTClusterMonitor, ST::STClusterMonitor/ITClusterMonitor
AlignSequence        INFO Member list: GaudiSequencer/AlignInputSeq, GaudiSequencer/AlignmentAlgSeq, GaudiSequencer/AlignMonitorSeq
AlignInputSeq        INFO Member list: GaudiSequencer/AlignTrackSelSeq
AlignTrackSelSeq     INFO Member list: TrackListRefiner/GoodLongTracksSelectorAlg, TrackListMerger/AlignTracks
AlignmentAlgSeq      INFO Member list: AlignAlgorithm/Alignment
ToolSvc.GetElem...WARNING You haven't specified any elements to align!
ToolSvc.GetElem...   INFO Use local frame = 1
ToolSvc.GetElem...   INFO ===================== GetElementsToAlign =====================
ToolSvc.GetElem...   INFO    Going to align 0 detector elements:
ToolSvc.GetElem...   INFO    Number of elements in map: 0
ToolSvc.GetElem...   INFO ==============================================================
ToolSvc.Al::Ali...   INFO Constraint definition:  dofs = num elements = 0
ToolSvc.Al::Ali...   INFO Number of constraint definitions= 1,  number of active constraints = 0
ToolSvc.Al::Ali...   INFO Number of entries in xml data: 0
ToolSvc.Al::Ali...   INFO Number of entries specified by job-option: 0
ToolSvc.DiagSol...   INFO EigenValueThreshold = -1
ToolSvc.DiagSol...   INFO MinEigenModeChisquare = -1
Alignment            INFO Use correlations = 1
AlignMonitorSeq      INFO Member list: TrackMonitor/GoodLongTracksTrackMonitor, TrackVeloOverlapMonitor/GoodLongTracksVeloOverlapMonitor, TrackITOverlapMonitor/GoodLongTracksITOverlapMonitor, TTTrackMonitor/GoodLongTracksTTTrackMonitor, OTTrackMonitor/GoodLongTracksOTTrackMonitor, TrackFitMatchMonitor/GoodLongTracksFitMatchMonitor
ApplicationMgr       INFO Application Manager Initialized successfully
ApplicationMgr       INFO Application Manager Started successfully
EventSelector        INFO End of event input reached.
EventLoopMgr         INFO No more events in event selection
ApplicationMgr       INFO Application Manager Stopped successfully
EscherInit        SUCCESS ==================================================================
EscherInit        SUCCESS 0 events processed
EscherInit        SUCCESS ==================================================================
EscherInit        WARNING Should have processed 10 events
EscherInit        WARNING ==================================================================
createTTClusters     INFO Successfully processed 0 %
createTTClusters  SUCCESS Number of counters : 2
 |    Counter                                      |     #     |    sum     | mean/eff^* | rms/err^*  |     min     |     max     |
 | "# valid banks"                                 |         0 |          0 |     0.0000 |     0.0000 | 1.7977e+308 |-1.7977e+308 |
 | "skipped Banks"                                 |         0 |          0 |     0.0000 |     0.0000 | 1.7977e+308 |-1.7977e+308 |
createTTLiteClu...   INFO Successfully processed 0 %
createTTLiteClu...SUCCESS Number of counters : 2
 |    Counter                                      |     #     |    sum     | mean/eff^* | rms/err^*  |     min     |     max     |
 | "# valid banks"                                 |         0 |          0 |     0.0000 |     0.0000 | 1.7977e+308 |-1.7977e+308 |
 | "skipped Banks"                                 |         0 |          0 |     0.0000 |     0.0000 | 1.7977e+308 |-1.7977e+308 |
createITLiteClu...   INFO Successfully processed 0 %
createITLiteClu...SUCCESS Number of counters : 2
 |    Counter                                      |     #     |    sum     | mean/eff^* | rms/err^*  |     min     |     max     |
 | "# valid banks"                                 |         0 |          0 |     0.0000 |     0.0000 | 1.7977e+308 |-1.7977e+308 |
 | "skipped Banks"                                 |         0 |          0 |     0.0000 |     0.0000 | 1.7977e+308 |-1.7977e+308 |
createITClusters     INFO Successfully processed 0 %
createITClusters  SUCCESS Number of counters : 2
 |    Counter                                      |     #     |    sum     | mean/eff^* | rms/err^*  |     min     |     max     |
 | "# valid banks"                                 |         0 |          0 |     0.0000 |     0.0000 | 1.7977e+308 |-1.7977e+308 |
 | "skipped Banks"                                 |         0 |          0 |     0.0000 |     0.0000 | 1.7977e+308 |-1.7977e+308 |
TrackBestTrackC...   INFO   Fitting performance   :   100.00 %
TrackBestTrackC...SUCCESS Number of counters : 1
 |    Counter                                      |     #     |    sum     | mean/eff^* | rms/err^*  |     min     |     max     |
 | "FitFailed"                                     |         0 |          0 |     0.0000 |     0.0000 | 1.7977e+308 |-1.7977e+308 |
VeloClusterMonitorSUCCESS Booked 15 Histogram(s) : 1D=12 2D=3
VeloTrackMonitor  SUCCESS Booked 38 Histogram(s) : 1D=27 1DProf=11
VeloIPResolutio...SUCCESS Booked 21 Histogram(s) : 1D=21
TrackVertexMonitorSUCCESS Booked 29 Histogram(s) : 1D=15 1DProf=14
AlignmentOnline...SUCCESS Booked 34 Histogram(s) : 1D=34
TrackFitMatchMo...SUCCESS Booked 10 Histogram(s) : 1D=5 1DProf=5
TrackAlignMonitor    INFO Number of elements in jacobian map: 0
TrackAlignMonitor SUCCESS Booked 27 Histogram(s) : 1D=18 1DProf=9
TrackITOverlapM...SUCCESS Booked 2 Histogram(s) : 1D=2
OTTimeMonitor     SUCCESS Booked 9 Histogram(s) : 1D=8 1DProf=1
OTTrackMonitor    SUCCESS Booked 67 Histogram(s) : 1D=47 2D=7 1DProf=13
OTHitEfficiency...SUCCESS Booked 101 Histogram(s) : 1D=9 2D=21 1DProf=47 2DProf=24
TTClusterMonitor  SUCCESS Booked 17 Histogram(s) : 1D=12 2D=4 1DProf=1
ITClusterMonitor  SUCCESS Booked 13 Histogram(s) : 1D=8 2D=4 1DProf=1
Alignment            INFO Total number of tracks: 0
Alignment            INFO Number of covariance calculation failures: 0
ToolSvc.Al::Ali...WARNING ==> No elements to align.
ToolSvc.WriteMu...   INFO Calling the following xml writers:

GoodLongTracksI...SUCCESS Booked 2 Histogram(s) : 1D=2
GoodLongTracksO...SUCCESS Booked 67 Histogram(s) : 1D=47 2D=7 1DProf=13
GoodLongTracksF...SUCCESS Booked 10 Histogram(s) : 1D=5 1DProf=5
EventLoopMgr         INFO Histograms converted successfully according to request.
TransportSvc      SUCCESS  GEOMETRY ERRORS: 'Skip'     map has the size 0

TransportSvc      SUCCESS  GEOMETRY ERRORS: 'Recover'  map has the size 0

TransportSvc      SUCCESS  GEOMETRY ERRORS: 'Codes'    map has the size 0

TransportSvc         INFO Reset the static pointer to DetDesc::IGeometyrErrorSvc
ToolSvc              INFO Removing all tools created by ToolSvc
ToolSvc.TrackSt...SUCCESS Number of counters : 1
 |    Counter                                      |     #     |    sum     | mean/eff^* | rms/err^*  |     min     |     max     |
 | "Number of tracks seen"                         |         1 |          0 |     0.0000 |     0.0000 |      0.0000 |      0.0000 |
ToolSvc.TrackVe...SUCCESS Number of counters : 1
 |    Counter                                      |     #     |    sum     | mean/eff^* | rms/err^*  |     min     |     max     |
 | "Number of tracks seen"                         |         1 |          0 |     0.0000 |     0.0000 |      0.0000 |      0.0000 |
ToolSvc.FastVel...   INFO Maximum number of Velo hits 0
ToolSvc.OTChann...SUCCESS Exceptions/Errors/Warnings/Infos Statistics : 0/0/1/0
ToolSvc.OTChann...SUCCESS  #WARNINGS   = 1        Message = 'Updating OT channel map for bank version 3 [PatForward]'
TimingAuditor.T...   INFO --------------------------------------------------------------------------------------------------
TimingAuditor.T...   INFO This machine has a speed about   2.78 times the speed of a 2.8 GHz Xeon.
TimingAuditor.T...   INFO Algorithm          (millisec) |    <user> |   <clock> |      min       max    sigma | entries | total (s) |
TimingAuditor.T...   INFO --------------------------------------------------------------------------------------------------
TimingAuditor.T...   INFO EVENT LOOP                    |     0.000 |     0.000 |    0.000       0.0     0.00 |       0 |     0.000 |
TimingAuditor.T...   INFO  EscherSequencer              |     0.000 |     0.000 |    0.000       0.0     0.00 |       0 |     0.000 |
TimingAuditor.T...   INFO   Init                        |     0.000 |     0.000 |    0.000       0.0     0.00 |       0 |     0.000 |
TimingAuditor.T...   INFO    InitEscherSeq              |     0.000 |     0.000 |    0.000       0.0     0.00 |       0 |     0.000 |
TimingAuditor.T...   INFO     EscherInit                |     0.000 |     0.000 |    0.000       0.0     0.00 |       0 |     0.000 |
TimingAuditor.T...   INFO   HltFilterSeq                |     0.000 |     0.000 |    0.000       0.0     0.00 |       0 |     0.000 |
TimingAuditor.T...   INFO    Hlt1DecReportsDecoder      |     0.000 |     0.000 |    0.000       0.0     0.00 |       0 |     0.000 |
TimingAuditor.T...   INFO    Hlt2DecReportsDecoder      |     0.000 |     0.000 |    0.000       0.0     0.00 |       0 |     0.000 |
TimingAuditor.T...   INFO   Reco                        |     0.000 |     0.000 |    0.000       0.0     0.00 |       0 |     0.000 |
TimingAuditor.T...   INFO    RecoDecodingSeq            |     0.000 |     0.000 |    0.000       0.0     0.00 |       0 |     0.000 |
TimingAuditor.T...   INFO     createBothVeloClusters    |     0.000 |     0.000 |    0.000       0.0     0.00 |       0 |     0.000 |
TimingAuditor.T...   INFO     createTTClusters          |     0.000 |     0.000 |    0.000       0.0     0.00 |       0 |     0.000 |
TimingAuditor.T...   INFO     createTTLiteClusters      |     0.000 |     0.000 |    0.000       0.0     0.00 |       0 |     0.000 |
TimingAuditor.T...   INFO     createITLiteClusters      |     0.000 |     0.000 |    0.000       0.0     0.00 |       0 |     0.000 |
TimingAuditor.T...   INFO     createITClusters          |     0.000 |     0.000 |    0.000       0.0     0.00 |       0 |     0.000 |
TimingAuditor.T...   INFO    RecoVELOSeq                |     0.000 |     0.000 |    0.000       0.0     0.00 |       0 |     0.000 |
TimingAuditor.T...   INFO     FastVeloTracking          |     0.000 |     0.000 |    0.000       0.0     0.00 |       0 |     0.000 |
TimingAuditor.T...   INFO    RecoTTSeq                  |     0.000 |     0.000 |    0.000       0.0     0.00 |       0 |     0.000 |
TimingAuditor.T...   INFO    RecoITSeq                  |     0.000 |     0.000 |    0.000       0.0     0.00 |       0 |     0.000 |
TimingAuditor.T...   INFO    RecoOTSeq                  |     0.000 |     0.000 |    0.000       0.0     0.00 |       0 |     0.000 |
TimingAuditor.T...   INFO    RecoTrSeq                  |     0.000 |     0.000 |    0.000       0.0     0.00 |       0 |     0.000 |
TimingAuditor.T...   INFO     Track                     |     0.000 |     0.000 |    0.000       0.0     0.00 |       0 |     0.000 |
TimingAuditor.T...   INFO      TrackForwardPatSeq       |     0.000 |     0.000 |    0.000       0.0     0.00 |       0 |     0.000 |
TimingAuditor.T...   INFO       PatForward              |     0.000 |     0.000 |    0.000       0.0     0.00 |       0 |     0.000 |
TimingAuditor.T...   INFO      TrackSeedPatSeq          |     0.000 |     0.000 |    0.000       0.0     0.00 |       0 |     0.000 |
TimingAuditor.T...   INFO       PatSeeding              |     0.000 |     0.000 |    0.000       0.0     0.00 |       0 |     0.000 |
TimingAuditor.T...   INFO      TrackMatchPatSeq         |     0.000 |     0.000 |    0.000       0.0     0.00 |       0 |     0.000 |
TimingAuditor.T...   INFO       PatMatch                |     0.000 |     0.000 |    0.000       0.0     0.00 |       0 |     0.000 |
TimingAuditor.T...   INFO      TrackDownstreamPatSeq    |     0.000 |     0.000 |    0.000       0.0     0.00 |       0 |     0.000 |
TimingAuditor.T...   INFO       PatDownstream           |     0.000 |     0.000 |    0.000       0.0     0.00 |       0 |     0.000 |
TimingAuditor.T...   INFO      TrackVeloTTPatSeq        |     0.000 |     0.000 |    0.000       0.0     0.00 |       0 |     0.000 |
TimingAuditor.T...   INFO       PatVeloTT               |     0.000 |     0.000 |    0.000       0.0     0.00 |       0 |     0.000 |
TimingAuditor.T...   INFO      TrackFitSeq              |     0.000 |     0.000 |    0.000       0.0     0.00 |       0 |     0.000 |
TimingAuditor.T...   INFO       TrackBestTrackCreator   |     0.000 |     0.000 |    0.000       0.0     0.00 |       0 |     0.000 |
TimingAuditor.T...   INFO      TrackAddExtraInfoSeq     |     0.000 |     0.000 |    0.000       0.0     0.00 |       0 |     0.000 |
TimingAuditor.T...   INFO       TrackClonesSeq          |     0.000 |     0.000 |    0.000       0.0     0.00 |       0 |     0.000 |
TimingAuditor.T...   INFO        FindTrackClones        |     0.000 |     0.000 |    0.000       0.0     0.00 |       0 |     0.000 |
TimingAuditor.T...   INFO        FlagTrackClones        |     0.000 |     0.000 |    0.000       0.0     0.00 |       0 |     0.000 |
TimingAuditor.T...   INFO       TrackAddLikelihood      |     0.000 |     0.000 |    0.000       0.0     0.00 |       0 |     0.000 |
TimingAuditor.T...   INFO       TrackAddNNGhostId       |     0.000 |     0.000 |    0.000       0.0     0.00 |       0 |     0.000 |
TimingAuditor.T...   INFO      TrackEraseExtraInformatio|     0.000 |     0.000 |    0.000       0.0     0.00 |       0 |     0.000 |
TimingAuditor.T...   INFO       TrackEraseExtraInfo     |     0.000 |     0.000 |    0.000       0.0     0.00 |       0 |     0.000 |
TimingAuditor.T...   INFO    RecoVertexSeq              |     0.000 |     0.000 |    0.000       0.0     0.00 |       0 |     0.000 |
TimingAuditor.T...   INFO     PatPVOffline              |     0.000 |     0.000 |    0.000       0.0     0.00 |       0 |     0.000 |
TimingAuditor.T...   INFO     TrackV0Finder             |     0.000 |     0.000 |    0.000       0.0     0.00 |       0 |     0.000 |
TimingAuditor.T...   INFO   Moni                        |     0.000 |     0.000 |    0.000       0.0     0.00 |       0 |     0.000 |
TimingAuditor.T...   INFO    MoniVELOSeq                |     0.000 |     0.000 |    0.000       0.0     0.00 |       0 |     0.000 |
TimingAuditor.T...   INFO     VeloClusterMonitor        |     0.000 |     0.000 |    0.000       0.0     0.00 |       0 |     0.000 |
TimingAuditor.T...   INFO     VeloTrackMonitor          |     0.000 |     0.000 |    0.000       0.0     0.00 |       0 |     0.000 |
TimingAuditor.T...   INFO     VeloIPResolutionMonitor   |     0.000 |     0.000 |    0.000       0.0     0.00 |       0 |     0.000 |
TimingAuditor.T...   INFO    MoniTrSeq                  |     0.000 |     0.000 |    0.000       0.0     0.00 |       0 |     0.000 |
TimingAuditor.T...   INFO     TrackMonitor              |     0.000 |     0.000 |    0.000       0.0     0.00 |       0 |     0.000 |
TimingAuditor.T...   INFO     TrackDiMuonMonitor        |     0.000 |     0.000 |    0.000       0.0     0.00 |       0 |     0.000 |
TimingAuditor.T...   INFO     TrackVertexMonitor        |     0.000 |     0.000 |    0.000       0.0     0.00 |       0 |     0.000 |
TimingAuditor.T...   INFO     AlignmentOnlineMonitor    |     0.000 |     0.000 |    0.000       0.0     0.00 |       0 |     0.000 |
TimingAuditor.T...   INFO     TrackV0Monitor            |     0.000 |     0.000 |    0.000       0.0     0.00 |       0 |     0.000 |
TimingAuditor.T...   INFO     TrackFitMatchMonitor      |     0.000 |     0.000 |    0.000       0.0     0.00 |       0 |     0.000 |
TimingAuditor.T...   INFO     TrackAlignMonitor         |     0.000 |     0.000 |    0.000       0.0     0.00 |       0 |     0.000 |
TimingAuditor.T...   INFO     TrackITOverlapMonitor     |     0.000 |     0.000 |    0.000       0.0     0.00 |       0 |     0.000 |
TimingAuditor.T...   INFO     TrackVeloOverlapMonitor   |     0.000 |     0.000 |    0.000       0.0     0.00 |       0 |     0.000 |
TimingAuditor.T...   INFO     TTTrackMonitor            |     0.000 |     0.000 |    0.000       0.0     0.00 |       0 |     0.000 |
TimingAuditor.T...   INFO     ITTrackMonitor            |     0.000 |     0.000 |    0.000       0.0     0.00 |       0 |     0.000 |
TimingAuditor.T...   INFO     TrackPV2HalfAlignMonitor  |     0.000 |     0.000 |    0.000       0.0     0.00 |       0 |     0.000 |
TimingAuditor.T...   INFO    MoniOTSeq                  |     0.000 |     0.000 |    0.000       0.0     0.00 |       0 |     0.000 |
TimingAuditor.T...   INFO     OTTimeMonitor             |     0.000 |     0.000 |    0.000       0.0     0.00 |       0 |     0.000 |
TimingAuditor.T...   INFO     OTTrackMonitor            |     0.000 |     0.000 |    0.000       0.0     0.00 |       0 |     0.000 |
TimingAuditor.T...   INFO     OTHitEfficiencyMonitor    |     0.000 |     0.000 |    0.000       0.0     0.00 |       0 |     0.000 |
TimingAuditor.T...   INFO    MoniSTSeq                  |     0.000 |     0.000 |    0.000       0.0     0.00 |       0 |     0.000 |
TimingAuditor.T...   INFO     TTClusterMonitor          |     0.000 |     0.000 |    0.000       0.0     0.00 |       0 |     0.000 |
TimingAuditor.T...   INFO     ITClusterMonitor          |     0.000 |     0.000 |    0.000       0.0     0.00 |       0 |     0.000 |
TimingAuditor.T...   INFO   AlignSequence               |     0.000 |     0.000 |    0.000       0.0     0.00 |       0 |     0.000 |
TimingAuditor.T...   INFO    AlignInputSeq              |     0.000 |     0.000 |    0.000       0.0     0.00 |       0 |     0.000 |
TimingAuditor.T...   INFO     AlignTrackSelSeq          |     0.000 |     0.000 |    0.000       0.0     0.00 |       0 |     0.000 |
TimingAuditor.T...   INFO      GoodLongTracksSelectorAlg|     0.000 |     0.000 |    0.000       0.0     0.00 |       0 |     0.000 |
TimingAuditor.T...   INFO      AlignTracks              |     0.000 |     0.000 |    0.000       0.0     0.00 |       0 |     0.000 |
TimingAuditor.T...   INFO    AlignmentAlgSeq            |     0.000 |     0.000 |    0.000       0.0     0.00 |       0 |     0.000 |
TimingAuditor.T...   INFO     Alignment                 |     0.000 |     0.000 |    0.000       0.0     0.00 |       0 |     0.000 |
TimingAuditor.T...   INFO    AlignMonitorSeq            |     0.000 |     0.000 |    0.000       0.0     0.00 |       0 |     0.000 |
TimingAuditor.T...   INFO     GoodLongTracksTrackMonitor|     0.000 |     0.000 |    0.000       0.0     0.00 |       0 |     0.000 |
TimingAuditor.T...   INFO     GoodLongTracksVeloOverlapM|     0.000 |     0.000 |    0.000       0.0     0.00 |       0 |     0.000 |
TimingAuditor.T...   INFO     GoodLongTracksITOverlapMon|     0.000 |     0.000 |    0.000       0.0     0.00 |       0 |     0.000 |
TimingAuditor.T...   INFO     GoodLongTracksTTTrackMonit|     0.000 |     0.000 |    0.000       0.0     0.00 |       0 |     0.000 |
TimingAuditor.T...   INFO     GoodLongTracksOTTrackMonit|     0.000 |     0.000 |    0.000       0.0     0.00 |       0 |     0.000 |
TimingAuditor.T...   INFO     GoodLongTracksFitMatchMoni|     0.000 |     0.000 |    0.000       0.0     0.00 |       0 |     0.000 |
TimingAuditor.T...   INFO --------------------------------------------------------------------------------------------------
DataOnDemandSvc      INFO Handled "DataFault" incidents: 0/0/0(Alg/Node/Total).
ApplicationMgr       INFO Application Manager Finalized successfully
ApplicationMgr       INFO Application Manager Terminated successfully
