######## Y Misalignment ########
IT :  Mean = 0.259 +- 0.037 (7.0) | Sigma = 0.651 +- 0.026 (24.9)

IT1Bottom :  Mean = 0.030 +- 0.071 (0.4) | Sigma = 0.339 +- 0.050 (6.8)
IT1Top :  Mean = 0.895 +- 0.053 (16.9) | Sigma = 0.260 +- 0.037 (6.9)
IT1ASide :  Mean = 0.257 +- 0.022 (11.8) | Sigma = 0.115 +- 0.015 (7.5)
IT1CSide :  Mean = -0.180 +- 0.026 (-7.0) | Sigma = 0.136 +- 0.018 (7.5)
IT2Bottom :  Mean = -0.090 +- 0.077 (-1.2) | Sigma = 0.375 +- 0.054 (6.9)
IT2Top :  Mean = 1.118 +- 0.081 (13.9) | Sigma = 0.395 +- 0.057 (6.9)
IT2ASide :  Mean = -0.152 +- 0.033 (-4.6) | Sigma = 0.176 +- 0.023 (7.5)
IT2CSide :  Mean = 0.553 +- 0.026 (21.2) | Sigma = 0.138 +- 0.018 (7.5)
IT3Bottom :  Mean = -0.162 +- 0.099 (-1.6) | Sigma = 0.486 +- 0.070 (6.9)
IT3Top :  Mean = 1.628 +- 0.090 (18.1) | Sigma = 0.429 +- 0.065 (6.6)
IT3ASide :  Mean = -0.184 +- 0.040 (-4.6) | Sigma = 0.211 +- 0.028 (7.5)
IT3CSide :  Mean = -0.298 +- 0.033 (-8.9) | Sigma = 0.177 +- 0.024 (7.5)

